…
> pop_rows <- ahrf_county_layout[grep("population", ahrf_county_layout$label_2, ignore.case=T),]
> View(pop_rows)
```
County-level hospital beds in 2016
```
> ahrf2016r::ahrf_county %>% 
        select(county = F04437, 
               fips = F00002, 
               beds_2016 = F0892113,
               pop_2016 = F1198415) %>% 
        mutate(beds_2016 = as.integer(beds_2016),
               pop_2016 = as.integer(pop_2016),
               beds_2016_p10k = beds_2016 / pop_2016 * 10000) -> beds
> beds
# A tibble: 3,230 × 5
         county  fips beds_2016 pop_2016 beds_2016_p10k
          <chr> <chr>     <int>    <int>          <dbl>
1   Autauga, AL 01001        50    55347       9.033913
2   Baldwin, AL 01003       364   203709      17.868626
3   Barbour, AL 01005        47    26489      17.743214
4      Bibb, AL 01007        20    22583       8.856219
5    Blount, AL 01009        40    57673       6.935654
6   Bullock, AL 01011        54    10696      50.486163
7    Butler, AL 01013        83    20154      41.182892
8   Calhoun, AL 01015       458   115620      39.612524
9  Chambers, AL 01017       188    34123      55.094804
10 Cherokee, AL 01019        45    25859      17.402065
# ... with 3,220 more rows
…
